SplineFontDB: 3.2
FontName: Untitled1
FullName: Untitled1
FamilyName: Untitled1
Weight: Regular
Copyright: Copyright (c) 2020, jasch
UComments: "2020-11-27: Created with FontForge (http://fontforge.org)"
Version: 001.000
ItalicAngle: 0
UnderlinePosition: -100
UnderlineWidth: 50
Ascent: 800
Descent: 200
InvalidEm: 0
LayerCount: 2
Layer: 0 0 "Zur+APwA-ck" 1
Layer: 1 0 "Zeichen" 0
XUID: [1021 672 1102542148 338422]
StyleMap: 0x0000
FSType: 0
OS2Version: 0
OS2_WeightWidthSlopeOnly: 0
OS2_UseTypoMetrics: 1
CreationTime: 1606489963
ModificationTime: 1606490408
OS2TypoAscent: 0
OS2TypoAOffset: 1
OS2TypoDescent: 0
OS2TypoDOffset: 1
OS2TypoLinegap: 90
OS2WinAscent: 0
OS2WinAOffset: 1
OS2WinDescent: 0
OS2WinDOffset: 1
HheadAscent: 0
HheadAOffset: 1
HheadDescent: 0
HheadDOffset: 1
DEI: 91125
Encoding: UnicodeBmp
UnicodeInterp: none
NameList: AGL For New Fonts
DisplaySize: -48
AntiAlias: 1
FitToEm: 0
WinInfo: 62662 38 14
BeginChars: 65536 2

StartChar: uniF5F0
Encoding: 62960 62960 0
Width: 1000
VWidth: 0
HStem: 208 81<0 1000>
LayerCount: 2
Fore
SplineSet
0 289 m 5
 1000 289 l 5
 1000 208 l 5
 0 208 l 5
 0 289 l 5
EndSplineSet
Validated: 1
EndChar

StartChar: uniF5F1
Encoding: 62961 62961 1
Width: 1000
VWidth: 0
HStem: 208 141<0 1000>
LayerCount: 2
Fore
SplineSet
0 349 m 5
 1000 349 l 5
 1000 208 l 1
 0 208 l 1
 0 349 l 5
EndSplineSet
Validated: 1
EndChar
EndChars
EndSplineFont
